…
Although the names of the races probably don't mean much to you (or even me!), it's clear that some race courses have a significantly faster speed than other courses. This could depend on many factors, such as overall elevation gain, whether more men or women ran the race, and the mean age of participants.

Next I dove into individual runner speeds and if any runners have run more than one race. Many have run over 20 of the races included in this dataset! The fastest runners tend to have an average speed of greater than 8 mph, which is so fast to be running for a long distance.
  
<details>
  <summary></summary>

{% highlight r %}
joined %>%
  count(runner, sort = TRUE)
{% endhighlight %}
  
</details>
  
`# A tibble: 58,402 × 2
   runner              n
   <chr>           <int>
 1 FANCETT Kenneth    36
 2 SMITH Mike         36
 3 DONNELLY Susan     32
 4 CATMUR Edward      28
 5 THOMPSON David     26
 6 JOHNSON Peter      25
 7 NAKAMURA Sean      24
 8 THOMPSON Mark      24
 9 CARTER Williams    23
10 JONES Chris        23
# … with 58,392 more rows`
…
